<?xml version="1.0" encoding="utf-8"?>
<!-- Generator: Adobe Illustrator 16.0.0, SVG Export Plug-In . SVG Version: 6.00 Build 0)  -->
<!DOCTYPE svg PUBLIC "-//W3C//DTD SVG 1.1//EN" "http://www.w3.org/Graphics/SVG/1.1/DTD/svg11.dtd">
<svg version="1.1" id="Layer_1" xmlns="http://www.w3.org/2000/svg" xmlns:xlink="http://www.w3.org/1999/xlink" x="0px" y="0px"
	 width="256px" height="256px" viewBox="0 0 256 256" style="enable-background:new 0 0 256 256;" xml:space="preserve">
<style type="text/css">
<![CDATA[
	.st0{fill-rule:evenodd;clip-rule:evenodd;fill:#D35E20;fill-opacity:1;}
]]>
</style>
<path class="st0" d="M128.5,0c5,4.3,9.8,9,15.1,12.9c19,13.9,40.3,21.8,63.7,23.9c3.1,0.3,6.2,0.4,9.3,0.4c1.7,0,2.2,0.6,2.2,2.2
	c0.7,27.3,8.9,52,25.2,74c3.3,4.5,7.1,8.5,10.8,12.7c1.5,1.8,1.6,1.7,0,3.4c-12,12.3-21,26.4-27.2,42.3c-4.9,12.4-7.7,25.2-8.5,38.5
	c-0.1,1.9-0.3,3.9-0.3,5.8c0,1.7-0.6,2-2.2,2.1c-12.4,0.3-24.6,2.2-36.5,6c-19.4,6.2-36.3,16.3-50.9,30.5c-0.3,0.3-0.6,0.8-0.9,1.2
	c-0.1,0-0.3,0-0.4,0c-0.6-0.6-1.1-1.3-1.7-1.9c-13.7-13-29.5-22.7-47.4-28.8c-12.8-4.4-25.9-6.5-39.3-6.9c-1.7,0-2.2-0.6-2.2-2.3
	c0-3-0.1-6.1-0.4-9.1c-2-23.2-9.9-44.4-23.6-63.3c-4-5.5-8.9-10.4-13.3-15.6c0-0.1,0-0.3,0-0.4c0.9-0.9,1.8-1.8,2.7-2.8
	c22.3-24.1,34-52.4,34.7-85.3c0.1-2.4,0-2.4,2.4-2.4c20.9-0.2,40.5-5.5,58.8-15.4c10.9-5.9,20.7-13.2,29.4-22
	C128.2,0,128.3,0,128.5,0z M96.2,127.9c0,17.5,14.3,31.9,31.8,31.9c17.7,0,32.2-14.2,32.2-31.7c0-17.8-14.2-32.1-32-32.2
	C110.7,95.8,96.2,110.3,96.2,127.9z"/>
</svg>
